Stat 585 - Working in teams: Sample solution for the test case
…
## What is the relationship between height and weight? 

Read the data: 

```r
library(tidyverse)
iowa <- readr::read_csv("https://github.com/Stat585-at-ISU/materials/raw/master/01_collaborative-environment/data/brfss_iowa.csv") 
# the read_csv function from the readr package is faster than the standard read.csv
# but the output is a tibble (we'll come back to that)

iowa
```

```
## # A tibble: 6,227 × 330
##    X_STATE FMONTH IDATE IMONTH IDAY  IYEAR DISPC…¹  SEQNO  X_PSU CTELE…² PVTRE…³
##      <dbl>  <dbl> <chr> <chr>  <chr> <dbl>   <dbl>  <dbl>  <dbl>   <dbl>   <dbl>
##  1      19      7 0708… 07     08     2015    1200 2.02e9 2.02e9      NA      NA
##  2      19      3 0321… 03     21     2015    1200 2.02e9 2.02e9      NA      NA
##  3      19     10 0110… 01     10     2016    1200 2.02e9 2.02e9      NA      NA
##  4      19      4 0509… 05     09     2015    1200 2.02e9 2.02e9      NA      NA
##  5      19      5 0624… 06     24     2015    1200 2.02e9 2.02e9      NA      NA
##  6      19      7 0803… 08     03     2015    1200 2.02e9 2.02e9      NA      NA
##  7      19      7 0812… 08     12     2015    1200 2.02e9 2.02e9      NA      NA
##  8      19      7 0810… 08     10     2015    1200 2.02e9 2.02e9      NA      NA
##  9      19     10 1115… 11     15     2015    1200 2.02e9 2.02e9      NA      NA
## 10      19      8 0813… 08     13     2015    1200 2.02e9 2.02e9      NA      NA
## # … with 6,217 more rows, 319 more variables: COLGHOUS <lgl>, STATERES <dbl>,
## #   CELLFON3 <dbl>, LADULT <lgl>, NUMADULT <dbl>, NUMMEN <dbl>, NUMWOMEN <dbl>,
## #   CTELNUM1 <dbl>, CELLFON2 <dbl>, CADULT <dbl>, PVTRESD2 <dbl>,
## #   CCLGHOUS <dbl>, CSTATE <dbl>, LANDLINE <dbl>, HHADULT <dbl>, GENHLTH <dbl>,
## #   PHYSHLTH <dbl>, MENTHLTH <dbl>, POORHLTH <dbl>, HLTHPLN1 <dbl>,
## #   PERSDOC2 <dbl>, MEDCOST <dbl>, CHECKUP1 <dbl>, BPHIGH4 <dbl>, BPMEDS <dbl>,
## #   BLOODCHO <dbl>, CHOLCHK <dbl>, TOLDHI2 <dbl>, CVDINFR4 <dbl>, …
```
…
