Stat 585 - elements of the tidyverse
…
---

## Average number of reports per day (2)

What does `complete` do exactly?

```r
pd %>% 
  complete(day = full_seq(pd$day, period = 1))
```

```
## # A tibble: 2,297 × 10
##    day        Case Numbe…¹ Class…² Main  Date/…³ Earli…⁴ Lates…⁵ Gener…⁶ Dispo…⁷
##    <date>     <chr>        <chr>   <chr> <chr>   <chr>   <chr>   <chr>   <chr>  
##  1 2017-01-01 17-000001    Drug V… Drug… 01/01/… 01/01/… 01/01/… 124 Un… Arrest 
##  2 2017-01-01 17-000002    Drug V… Drug… 01/01/… 01/01/… 01/01/… Foutai… Arrest 
##  3 2017-01-02 17-000003    Drug V… Drug… 01/02/… 01/02/… 01/02/… Lincol… Arrest 
##  4 2017-01-03 <NA>         <NA>    <NA>  <NA>    <NA>    <NA>    <NA>    <NA>   
##  5 2017-01-04 <NA>         <NA>    <NA>  <NA>    <NA>    <NA>    <NA>    <NA>   
##  6 2017-01-05 <NA>         <NA>    <NA>  <NA>    <NA>    <NA>    <NA>    <NA>   
##  7 2017-01-06 17-000008    Drug V… Drug… 01/06/… <NA>    01/06/… Armory… Open   
##  8 2017-01-07 17-000010    Public… Publ… 01/07/… 01/07/… 01/07/… 204 We… Arrest 
##  9 2017-01-07 17-000011    Alcoho… Alco… 01/07/… 01/07/… 01/07/… 119 St… Arrest 
## 10 2017-01-08 17-000012    Drug V… Drug… 01/08/… 01/08/… 01/08/… Hawtho… Arrest 
## # … with 2,287 more rows, 1 more variable: date <dttm>, and abbreviated
## #   variable names ¹​`Case Number`, ²​Classification, ³​`Date/Time Reported`,
## #   ⁴​`Earliest Occurrence`, ⁵​`Latest Occurrence`, ⁶​`General Location`,
## #   ⁷​Disposition
```
…
