Stat 585 - Web Scraping
…
##    <lgl>     <chr>             <chr> <chr> <chr> <lgl> <chr>
##  1 NA        "Trump\n        … "Rep… 800,… 51.1% NA    6    
##  2 NA        "Clinton\n      … "Dem… 653,… 41.7% NA    —    
##  3 NA        "Johnson\n      … "Lib… 59,1… 3.8%  NA    —    
##  4 NA        "Others\n       … "Ind… 19,9… 1.3%  NA    —    
##  5 NA        "McMullin\n     … "Pet… 12,3… 0.8%  NA    —    
##  6 NA        "Stein\n        … "Gre… 11,4… 0.7%  NA    —    
##  7 NA        "Castle\n       … "Con… 5,335 0.3%  NA    —    
##  8 NA        "Kahn\n         … "Ind… 2,247 0.1%  NA    —    
##  9 NA        "De La Fuente\n … "Pet… 451   0.0%  NA    —    
## 10 NA        "La Riva\n      … "P.S… 323   0.0%  NA    —    
## 11 NA        "Others\n       … ""    32,2… 2.1%  NA    —    
## 
## [[2]]
## # A tibble: 99 × 3
##    `Vote by county` Trump  Clinton
##    <chr>            <chr>  <chr>  
##  1 Polk             93,492 119,804
##  2 Linn             48,390 58,935 
##  3 Scott            39,149 40,440 
##  4 Johnson          21,044 50,200 
##  5 Black Hawk       27,476 32,233 
##  6 Story            19,458 25,709 
##  7 Dubuque          23,460 22,850 
##  8 Woodbury         24,727 16,210 
##  9 Pottawattamie    24,447 15,355 
## 10 Dallas           19,339 15,701 
## # ℹ 89 more rows
## 
## [[3]]
## # A tibble: 6 × 6
##   Candidate Candidate                Party Votes Pct.  ``   
##   <lgl>     <chr>                    <chr> <chr> <chr> <lgl>
## 1 NA        "Grassley*\n           … "Rep… 926,… 60.2% NA   
## 2 NA        "Judge\n            \n … "Dem… 549,… 35.7% NA   
## 3 NA        "Aldrich\n            \… "Lib… 41,7… 2.7%  NA   
## 4 NA        "Hennager\n            … "Ind… 17,6… 1.1%  NA   
## 5 NA        "Luick-Thrams\n        … "Pet… 4,441 0.3%  NA   
## 6 NA        "Others\n            \n… ""    22,0… 1.4%  NA   
## 
## [[4]]
## # A tibble: 99 × 3
##    `Vote by county` Grassley Judge  
##    <chr>            <chr>    <chr>  
##  1 Polk             118,164  100,317
##  2 Linn             62,737   47,635 
##  3 Scott            46,415   34,503 
##  4 Johnson          28,914   42,699 
##  5 Black Hawk       33,884   27,245 
##  6 Story            25,475   21,472 
##  7 Dubuque          27,348   19,291 
##  8 Woodbury         27,166   13,909 
##  9 Pottawattamie    25,721   12,943 
## 10 Dallas           24,374   11,876 
## # ℹ 89 more rows
## 
## [[5]]
## # A tibble: 4 × 5
##   `District\n          Dist.` Leader       ``    Rpt.  ``   
##                         <int> <chr>        <chr> <chr> <lgl>
## 1                           1 "54%Blum*\n… "46%… 100%  NA   
## 2                           2 "54%Loebsac… "46%… 100%  NA   
## 3                           3 "54%Young*\… "40%… 100%  NA   
## 4                           4 "61%King*\n… "39%… 100%  NA   
## 
## [[6]]
## # A tibble: 25 × 5
##    `Seat\n          Seat` Leader           ``    Rpt.  ``   
##                     <int> <chr>            <chr> <chr> <lgl>
##  1                      2 "0%Feenstra*\n … "Unc… ""    NA   
##  2                      4 "61%Guth*\n    … "39%… "100… NA   
##  3                      6 "83%Segebart*\n… "17%… "100… NA   
##  4                      8 "54%Dawson\n   … "46%… "100… NA   
##  5                     10 "67%Chapman*\n … "33%… "100… NA   
##  6                     12 "78%Costello*\n… "22%… "100… NA   
##  7                     14 "74%Sinclair*\n… "26%… "100… NA   
##  8                     16 "60%Boulton\n  … "35%… "100… NA   
##  9                     18 "0%Petersen*\n … "Unc… ""    NA   
## 10                     20 "60%Zaun*\n    … "41%… "100… NA   
## # ℹ 15 more rows
## 
## [[7]]
## # A tibble: 100 × 5
##    `District\n          Dist.` Leader      ``    Rpt.  ``   
##                          <int> <chr>       <chr> <chr> <lgl>
##  1                           1 "0%Wills*\… "Unc… ""    NA   
##  2                           2 "0%Jones*\… "Unc… ""    NA   
##  3                           3 "81%Husema… "19%… "100… NA   
##  4                           4 "63%Wheele… "37%… "100… NA   
##  5                           5 "77%Holz*\… "23%… "100… NA   
##  6                           6 "66%Carlin… "35%… "100… NA   
##  7                           7 "63%Gassma… "37%… "100… NA   
##  8                           8 "68%Baxter… "32%… "100… NA   
##  9                           9 "57%Miller… "43%… "100… NA   
## 10                          10 "0%Sexton*… "Unc… ""    NA   
## # ℹ 90 more rows
## 
## [[8]]
…
## Data Munging

Most tables need a bit of clean-up:

```r
ia_results <- tables[[2]] %>% mutate(
  Trump  = parse_number(Trump),
  Clinton = parse_number(Clinton)
)
ia_results
```

```
## # A tibble: 99 × 3
##    `Vote by county` Trump Clinton
##    <chr>            <dbl>   <dbl>
##  1 Polk             93492  119804
##  2 Linn             48390   58935
##  3 Scott            39149   40440
##  4 Johnson          21044   50200
##  5 Black Hawk       27476   32233
##  6 Story            19458   25709
##  7 Dubuque          23460   22850
##  8 Woodbury         24727   16210
##  9 Pottawattamie    24447   15355
## 10 Dallas           19339   15701
## # ℹ 89 more rows
```
…
##  1 ""                          Trum… "Rep… 897,… "53.… "6"  
##  2 ""                          Bide… "Dem… 759,… "44.… "—"  
##  3 ""                          Jorg… "Lib… 19,6… "1.2… "—"  
##  4 ""                          Writ… ""    4,337 "0.3… "—"  
##  5 ""                          West… "Ind… 3,210 "0.2… "—"  
##  6 ""                          Hawk… "Gre… 3,075 "0.2… "—"  
##  7 ""                          Blan… "Con… 1,707 "0.1… "—"  
##  8 ""                          De L… "Oth… 1,082 "0.1… "—"  
##  9 ""                          King… "Ind… 546   "<0.… "—"  
## 10 ""                          Pier… "Ind… 544   "<0.… "—"  
## 11 ""                          Tota… ""    1,69… ""    ""   
## 12 "View all candidates Colla… View… "Vie… View… "Vie… "Vie…
## 
## [[2]]
## # A tibble: 100 × 6
##    County        Margin  `2016 margin` `Est. votes reported`
##    <chr>         <chr>   <chr>         <chr>                
##  1 Allamakee     Trump … R+24.2        99%                  
##  2 Polk          Biden … D+11.4        100%                 
##  3 Linn          Biden … D+9           100%                 
##  4 Scott         Biden … D+1.5         100%                 
##  5 Johnson       Biden … D+37.9        100%                 
##  6 Black Hawk    Biden … D+7.4         100%                 
##  7 Dallas        Trump … R+9.5         100%                 
##  8 Dubuque       Trump … R+1.2         100%                 
##  9 Story         Biden … D+12.3        100%                 
## 10 Pottawattamie Trump … R+21.3        100%                 
## # ℹ 90 more rows
## # ℹ 2 more variables: `Total votes` <chr>, Absentee <chr>
## 
## [[3]]
…
## 4                4 R+24   Feenstra … Scho… 100%        ›    
## 
## [[7]]
## # A tibble: 3 × 2
##   Constitutional Convention Questio…¹ Constitutional Conve…²
##   <chr>                               <chr>                 
## 1 ""                                  ""                    
## 2 "Yes 30%"                           "No 70% Winner"       
## 3 "1,381,676 votes reported"          "1,381,676 votes repo…
## # ℹ abbreviated names:
## #   ¹​`Constitutional Convention Question: Explore Proposals for Changes to Constitution`,
## #   ²​`Constitutional Convention Question: Explore Proposals for Changes to Constitution`
## 
## [[8]]
## # A tibble: 26 × 3
##    `District Dist.` Candidates                ``            
##    <chr>            <chr>                     <chr>         
##  1 2                Taylor* Rep. 0% Winner    Uncontested   
##  2 4                Guth* Rep. 0% Winner      Uncontested   
##  3 6                Williams Rep. 69% Winner  Petersen Dem.…
##  4 8                Dawson* Rep. 52% Winner   Gorman Dem. 4…
##  5 10               Chapman* Rep. 63% Winner  Varley Dem. 3…
##  6 12               Costello* Rep. 69% Winner Norris Dem. 3…
##  7 14               Sinclair* Rep. 0% Winner  Uncontested   
##  8 16               Boulton* Dem. 77% Winner  Johnson Lib. …
##  9 18               Petersen* Dem. 0% Winner  Uncontested   
## 10 20               Zaun* Rep. 51% Winner     Martin Dem. 4…
## # ℹ 16 more rows
## 
## [[9]]
## # A tibble: 101 × 3
##    `District Dist.` Candidates               ``             
##    <chr>            <chr>                    <chr>          
##  1 1                Wills* Rep. 0% Winner    Uncontested    
##  2 2                Jones* Rep. 0% Winner    Uncontested    
##  3 3                Bush Rep. 0% Winner      Uncontested    
##  4 4                Wheeler* Rep. 82% Winner Johnson Dem. 1…
##  5 5                Jeneary* Rep. 0% Winner  Uncontested    
##  6 6                Bossman* Rep. 0% Winner  Uncontested    
##  7 7                Stone Rep. 62% Winner    Jensen Dem. 38%
##  8 8                Baxter* Rep. 75% Winner  Kiss Dem. 25%  
##  9 9                Meyer* Rep. 57% Winner   Clayton Dem. 4…
## 10 10               Sexton* Rep. 76% Winner  Schultes Dem. …
## # ℹ 91 more rows
## 
## [[10]]
…
```r
ia_results_2020
```

```
## # A tibble: 100 × 7
##    County Margin `2016 margin` `Total votes` Absentee Winner
##    <chr>  <chr>  <chr>                 <dbl>    <dbl> <chr> 
##  1 Allam… Trump… R+24.2                 7422     4816 Trump 
##  2 Polk   Biden… D+11.4               258755   140547 Biden 
##  3 Linn   Biden… D+9                  127458    81691 Biden 
##  4 Scott  Biden… D+1.5                 92599    63662 Biden 
##  5 Johns… Biden… D+37.9                83851    60517 Biden 
##  6 Black… Biden… D+7.4                 66593    40870 Biden 
##  7 Dallas Trump… R+9.5                 56022    34152 Trump 
##  8 Dubuq… Trump… R+1.2                 53926    34224 Trump 
##  9 Story  Biden… D+12.3                51038    30224 Biden 
## 10 Potta… Trump… R+21.3                45744    27443 Trump 
## # ℹ 90 more rows
## # ℹ 1 more variable: `Margin 2020` <chr>
```
…
