Stat 585 - The purrr package: split-apply-combine with lists
…
```
##  [1] "url"         "id"          "name"        "gender"      "culture"    
##  [6] "born"        "died"        "alive"       "titles"      "aliases"    
## [11] "father"      "mother"      "spouse"      "allegiances" "books"      
## [16] "povBooks"    "tvSeries"    "playedBy"
```

```r
got_chars_tbl <- as_tibble(transpose(got_chars))
got_chars_tbl
```

```
## # A tibble: 30 × 18
##    url       id     name  gender culture born  died  alive titles aliases father
##    <list>    <list> <lis> <list> <list>  <lis> <lis> <lis> <list> <list>  <list>
##  1 <chr [1]> <int>  <chr> <chr>  <chr>   <chr> <chr> <lgl> <chr>  <chr>   <chr> 
##  2 <chr [1]> <int>  <chr> <chr>  <chr>   <chr> <chr> <lgl> <chr>  <chr>   <chr> 
##  3 <chr [1]> <int>  <chr> <chr>  <chr>   <chr> <chr> <lgl> <chr>  <chr>   <chr> 
##  4 <chr [1]> <int>  <chr> <chr>  <chr>   <chr> <chr> <lgl> <chr>  <chr>   <chr> 
##  5 <chr [1]> <int>  <chr> <chr>  <chr>   <chr> <chr> <lgl> <chr>  <chr>   <chr> 
##  6 <chr [1]> <int>  <chr> <chr>  <chr>   <chr> <chr> <lgl> <chr>  <chr>   <chr> 
##  7 <chr [1]> <int>  <chr> <chr>  <chr>   <chr> <chr> <lgl> <chr>  <chr>   <chr> 
##  8 <chr [1]> <int>  <chr> <chr>  <chr>   <chr> <chr> <lgl> <chr>  <chr>   <chr> 
##  9 <chr [1]> <int>  <chr> <chr>  <chr>   <chr> <chr> <lgl> <chr>  <chr>   <chr> 
## 10 <chr [1]> <int>  <chr> <chr>  <chr>   <chr> <chr> <lgl> <chr>  <chr>   <chr> 
## # … with 20 more rows, and 7 more variables: mother <list>, spouse <list>,
## #   allegiances <list>, books <list>, povBooks <list>, tvSeries <list>,
## #   playedBy <list>
```
…
# unnesting 

`nest` and `unnest` are functions in the package `tidyr` to work with [nested data frames](https://tidyr.tidyverse.org/articles/nest.html)

`tidyr` 1.3.0 has just been released (Jan 24 2023) https://tidyr.tidyverse.org/news/index.html

which brings some syntactic changes with it: [new syntax](https://tidyr.tidyverse.org/reference/nest.html#new-syntax)

```r
got_chars_tbl %>% unnest(cols=1:6)
```

```
## # A tibble: 30 × 18
##    url           id name  gender culture born  died  alive titles aliases father
##    <chr>      <int> <chr> <chr>  <chr>   <chr> <lis> <lis> <list> <list>  <list>
##  1 https://w…  1022 Theo… Male   "Ironb… "In … <chr> <lgl> <chr>  <chr>   <chr> 
##  2 https://w…  1052 Tyri… Male   ""      "In … <chr> <lgl> <chr>  <chr>   <chr> 
##  3 https://w…  1074 Vict… Male   "Ironb… "In … <chr> <lgl> <chr>  <chr>   <chr> 
##  4 https://w…  1109 Will  Male   ""      ""    <chr> <lgl> <chr>  <chr>   <chr> 
##  5 https://w…  1166 Areo… Male   "Norvo… "In … <chr> <lgl> <chr>  <chr>   <chr> 
##  6 https://w…  1267 Chett Male   ""      "At … <chr> <lgl> <chr>  <chr>   <chr> 
##  7 https://w…  1295 Cres… Male   ""      "In … <chr> <lgl> <chr>  <chr>   <chr> 
##  8 https://w…   130 Aria… Female "Dorni… "In … <chr> <lgl> <chr>  <chr>   <chr> 
##  9 https://w…  1303 Daen… Female "Valyr… "In … <chr> <lgl> <chr>  <chr>   <chr> 
## 10 https://w…  1319 Davo… Male   "Weste… "In … <chr> <lgl> <chr>  <chr>   <chr> 
## # … with 20 more rows, and 7 more variables: mother <list>, spouse <list>,
## #   allegiances <list>, books <list>, povBooks <list>, tvSeries <list>,
## #   playedBy <list>
```
…
---

## Ready to fly!

The opposite of `nest` is `unnest`:

```r
coefs <- country_nest %>% select(country, continent, coefs) %>% 
  unnest(cols = coefs)
coefs
```

```
## # A tibble: 284 × 7
## # Groups:   continent, country [142]
##    country     continent term        estimate std.error statistic  p.value
##    <fct>       <fct>     <chr>          <dbl>     <dbl>     <dbl>    <dbl>
##  1 Afghanistan Asia      (Intercept)   29.4     0.699       42.0  1.40e-12
##  2 Afghanistan Asia      year           0.275   0.0205      13.5  9.84e- 8
##  3 Albania     Europe    (Intercept)   58.6     1.13        51.7  1.79e-13
##  4 Albania     Europe    year           0.335   0.0332      10.1  1.46e- 6
##  5 Algeria     Africa    (Intercept)   42.2     0.756       55.8  8.22e-14
##  6 Algeria     Africa    year           0.569   0.0221      25.7  1.81e-10
##  7 Angola      Africa    (Intercept)   31.7     0.804       39.4  2.63e-12
##  8 Angola      Africa    year           0.209   0.0235       8.90 4.59e- 6
##  9 Argentina   Americas  (Intercept)   62.2     0.167      372.   4.80e-22
## 10 Argentina   Americas  year           0.232   0.00489     47.4  4.22e-13
## # … with 274 more rows
```
…
